<svg width="194mm" height="126mm" version="1.1" viewBox="0 0 194 126" xmlns="http://www.w3.org/2000/svg"><link xmlns="" type="text/css" rel="stylesheet" id="dark-mode-custom-link"/><link xmlns="" type="text/css" rel="stylesheet" id="dark-mode-general-link"/><style xmlns="" lang="en" type="text/css" id="dark-mode-custom-style"/><style xmlns="" lang="en" type="text/css" id="dark-mode-native-style"/><style xmlns="" lang="en" type="text/css" id="dark-mode-native-sheet"/>
 <rect width="194" height="126" fill="#fff"/>
 <g stroke-width=".5"><path d="m4 60c3-19.5 8.6-36 17-53 13.2-18 17 28 34 20 7.7-3.4 14.4-9 23.2-8.4 15.8 0 33 52.7 41 74.5 4 17 20 43 32 22 12.5-18 18-37 26-55" fill="#fd2" stroke="#080"/><path d="m169 60v19m-13-19v48m-12-48v62m-13-62v56m-13-56v30m-12-33v3m-13-29v29m-13-41 0 41m-13-38l0 38m-12-33v33m-13-38 0 38m-13-56v56m-12-45 0 45" stroke="#00f"/><path d="m4 60 184 0" stroke="#000"/></g>
 <g fill="#47b"><circle cx="4" cy="60" r="2"/><circle cx="17" cy="15" r="2"/><circle cx="55" cy="27" r="2"/><circle cx="42" cy="22" r="2"/><circle cx="29" cy="4" r="2"/><circle cx="67" cy="21" r="2"/><circle cx="106" cy="57" r="2"/><circle cx="93" cy="31" r="2"/><circle cx="80" cy="19" r="2"/><circle cx="144" cy="122" r="2"/><circle cx="131" cy="117" r="2"/><circle cx="118" cy="90" r="2"/><circle cx="169" cy="79" r="2"/><circle cx="156" cy="108" r="2"/></g>
 <path d="m83 13h45m-22-10v54m-13-54v28" fill="none" stroke="#000" stroke-width=".5"/><path d="m112 15-2-2 2-2-6 2m-19 2 2-2-2-2 6 2m93 49 2-2-2-2 6 2"/>
 <g font-family="times" font-size="9px" text-anchor="middle"><text x="17" y="69">1</text><text x="42" y="69">i</text><text x="4" y="69">0</text><text x="55" y="69">4</text><text x="68" y="69">5</text><text x="170" y="56">13</text><text x="157" y="56">12</text><text x="144" y="56">11</text><text x="131" y="56">10</text><text x="119" y="56">9</text><text x="81" y="69">6</text><text x="93" y="69">7</text><text x="106" y="69">8</text><text x="30" y="69">...</text>
 <g font-style="italic"><text x="44" y="17" fill="#47b">S<tspan baseline-shift="sub" font-size="7px">i</tspan><tspan x="71" y="15">S(t)</tspan></text><text x="188" y="57">t</text><text x="120" y="11">T</text></g></g></svg>