(kicad_sch (version 20211123) (generator eeschema)

  (uuid ff26965e-88e4-4967-a0d1-f634634c2c52)

  (paper "A4")

  (lib_symbols
    (symbol "74xGxx:74AHC1G00" (pin_names (offset 1.016)) (in_bom yes) (on_board yes)
      (property "Reference" "U" (id 0) (at -2.54 3.81 0)
        (effects (font (size 1.27 1.27)))
      )
      (property "Value" "74AHC1G00" (id 1) (at 0 -3.81 0)
        (effects (font (size 1.27 1.27)))
      )
      (property "Footprint" "" (id 2) (at 0 0 0)
        (effects (font (size 1.27 1.27)) hide)
      )
      (property "Datasheet" "http://www.ti.com/lit/sg/scyt129e/scyt129e.pdf" (id 3) (at 0 0 0)
        (effects (font (size 1.27 1.27)) hide)
      )
      (property "ki_keywords" "Single Gate NAND LVC CMOS" (id 4) (at 0 0 0)
        (effects (font (size 1.27 1.27)) hide)
      )
      (property "ki_description" "Single NAND Gate, Low-Voltage CMOS" (id 5) (at 0 0 0)
        (effects (font (size 1.27 1.27)) hide)
      )
      (property "ki_fp_filters" "SOT* SG-*" (id 6) (at 0 0 0)
        (effects (font (size 1.27 1.27)) hide)
      )
      (symbol "74AHC1G00_0_1"
        (arc (start 0 -2.54) (mid 2.54 0) (end 0 2.54)
          (stroke (width 0.254) (type default) (color 0 0 0 0))
          (fill (type none))
        )
        (polyline
          (pts
            (xy 0 -2.54)
            (xy -3.81 -2.54)
            (xy -3.81 2.54)
            (xy 0 2.54)
          )
          (stroke (width 0.254) (type default) (color 0 0 0 0))
          (fill (type none))
        )
      )
      (symbol "74AHC1G00_1_1"
        (pin input line (at -7.62 1.27 0) (length 3.81)
          (name "~" (effects (font (size 1.016 1.016))))
          (number "1" (effects (font (size 1.016 1.016))))
        )
        (pin input line (at -7.62 -1.27 0) (length 3.81)
          (name "~" (effects (font (size 1.016 1.016))))
          (number "2" (effects (font (size 1.016 1.016))))
        )
        (pin power_in line (at 0 -2.54 270) (length 0) hide
          (name "GND" (effects (font (size 1.016 1.016))))
          (number "3" (effects (font (size 1.016 1.016))))
        )
        (pin output inverted (at 6.35 0 180) (length 3.81)
          (name "~" (effects (font (size 1.016 1.016))))
          (number "4" (effects (font (size 1.016 1.016))))
        )
        (pin power_in line (at 0 2.54 90) (length 0) hide
          (name "VCC" (effects (font (size 1.016 1.016))))
          (number "5" (effects (font (size 1.016 1.016))))
        )
      )
    )
    (symbol "74xGxx:74AHC1G04" (pin_names (offset 1.016)) (in_bom yes) (on_board yes)
      (property "Reference" "U" (id 0) (at -2.54 3.81 0)
        (effects (font (size 1.27 1.27)))
      )
      (property "Value" "74AHC1G04" (id 1) (at 0 -3.81 0)
        (effects (font (size 1.27 1.27)))
      )
      (property "Footprint" "" (id 2) (at 0 0 0)
        (effects (font (size 1.27 1.27)) hide)
      )
      (property "Datasheet" "http://www.ti.com/lit/sg/scyt129e/scyt129e.pdf" (id 3) (at 0 0 0)
        (effects (font (size 1.27 1.27)) hide)
      )
      (property "ki_keywords" "Single Gate NOT LVC CMOS" (id 4) (at 0 0 0)
        (effects (font (size 1.27 1.27)) hide)
      )
      (property "ki_description" "Single NOT Gate, Low-Voltage CMOS" (id 5) (at 0 0 0)
        (effects (font (size 1.27 1.27)) hide)
      )
      (property "ki_fp_filters" "SOT* SG-*" (id 6) (at 0 0 0)
        (effects (font (size 1.27 1.27)) hide)
      )
      (symbol "74AHC1G04_0_1"
        (polyline
          (pts
            (xy -3.81 2.54)
            (xy -3.81 -2.54)
            (xy 2.54 0)
            (xy -3.81 2.54)
          )
          (stroke (width 0.254) (type default) (color 0 0 0 0))
          (fill (type none))
        )
      )
      (symbol "74AHC1G04_1_1"
        (pin input line (at -7.62 0 0) (length 3.81)
          (name "~" (effects (font (size 1.016 1.016))))
          (number "2" (effects (font (size 1.016 1.016))))
        )
        (pin power_in line (at 0 -2.54 270) (length 0) hide
          (name "GND" (effects (font (size 1.016 1.016))))
          (number "3" (effects (font (size 1.016 1.016))))
        )
        (pin output inverted (at 6.35 0 180) (length 3.81)
          (name "~" (effects (font (size 1.016 1.016))))
          (number "4" (effects (font (size 1.016 1.016))))
        )
        (pin power_in line (at 0 2.54 90) (length 0) hide
          (name "VCC" (effects (font (size 1.016 1.016))))
          (number "5" (effects (font (size 1.016 1.016))))
        )
      )
    )
  )

  (junction (at 154.94 109.22) (diameter 0) (color 0 0 0 0)
    (uuid 288fe286-076e-4deb-a3cf-9c595ca6ab4a)
  )
  (junction (at 105.41 87.63) (diameter 0) (color 0 0 0 0)
    (uuid af13bbe6-4b76-49e2-b43c-d33a21379d7a)
  )
  (junction (at 157.48 90.17) (diameter 0) (color 0 0 0 0)
    (uuid de07786c-8b7a-4eda-bd1f-d802ad6f50a3)
  )
  (junction (at 114.3 90.17) (diameter 0) (color 0 0 0 0)
    (uuid e226e990-4268-46cc-976e-9298da25d13c)
  )

  (wire (pts (xy 154.94 109.22) (xy 160.02 109.22))
    (stroke (width 0) (type default) (color 0 0 0 0))
    (uuid 001d5023-e996-4772-90e3-b27e4ee71659)
  )
  (wire (pts (xy 105.41 87.63) (xy 105.41 92.71))
    (stroke (width 0) (type default) (color 0 0 0 0))
    (uuid 0a89fe9b-59bf-482c-9d98-b31adc7269fb)
  )
  (wire (pts (xy 130.81 110.49) (xy 139.7 110.49))
    (stroke (width 0) (type default) (color 0 0 0 0))
    (uuid 0e8c7d3e-d405-4cc3-b71d-5bf5f38f2230)
  )
  (wire (pts (xy 157.48 90.17) (xy 157.48 100.33))
    (stroke (width 0) (type default) (color 0 0 0 0))
    (uuid 20ac60a7-03e8-40ee-a6e6-9082e973b801)
  )
  (wire (pts (xy 101.6 90.17) (xy 114.3 90.17))
    (stroke (width 0) (type default) (color 0 0 0 0))
    (uuid 296b25c7-a2d7-4fad-9b50-9dafe3638219)
  )
  (wire (pts (xy 139.7 91.44) (xy 139.7 96.52))
    (stroke (width 0) (type default) (color 0 0 0 0))
    (uuid 48bcb614-7f7a-4809-89ad-09df800f34c4)
  )
  (wire (pts (xy 130.81 88.9) (xy 139.7 88.9))
    (stroke (width 0) (type default) (color 0 0 0 0))
    (uuid 4b320ee8-5598-4fd6-8b31-4fa7607f2039)
  )
  (wire (pts (xy 157.48 90.17) (xy 160.02 90.17))
    (stroke (width 0) (type default) (color 0 0 0 0))
    (uuid 522870a9-6e09-48a1-97dd-49dcb96de86a)
  )
  (wire (pts (xy 116.84 90.17) (xy 114.3 90.17))
    (stroke (width 0) (type default) (color 0 0 0 0))
    (uuid 5384f4f5-ec4a-4e00-9aa1-36267d1e2372)
  )
  (wire (pts (xy 153.67 90.17) (xy 157.48 90.17))
    (stroke (width 0) (type default) (color 0 0 0 0))
    (uuid 7ecd2a3d-7d38-4e4d-9374-94d186a996a2)
  )
  (wire (pts (xy 139.7 100.33) (xy 157.48 100.33))
    (stroke (width 0) (type default) (color 0 0 0 0))
    (uuid 81c1552e-1a48-457d-a723-f09bf367b30a)
  )
  (wire (pts (xy 101.6 87.63) (xy 105.41 87.63))
    (stroke (width 0) (type default) (color 0 0 0 0))
    (uuid 84e5e1a0-2ad6-4029-8c11-2081bac370ac)
  )
  (wire (pts (xy 153.67 109.22) (xy 154.94 109.22))
    (stroke (width 0) (type default) (color 0 0 0 0))
    (uuid 98370cd9-f621-41b8-84dd-37511f870723)
  )
  (wire (pts (xy 139.7 107.95) (xy 139.7 100.33))
    (stroke (width 0) (type default) (color 0 0 0 0))
    (uuid a8298e23-82a1-42fd-9c31-abdfc83076ed)
  )
  (wire (pts (xy 105.41 111.76) (xy 116.84 111.76))
    (stroke (width 0) (type default) (color 0 0 0 0))
    (uuid b38e22d6-f40d-4eb3-8957-82a8d71d0482)
  )
  (wire (pts (xy 139.7 96.52) (xy 154.94 96.52))
    (stroke (width 0) (type default) (color 0 0 0 0))
    (uuid b51d1223-16aa-4702-946e-b1d313245c6f)
  )
  (wire (pts (xy 114.3 109.22) (xy 116.84 109.22))
    (stroke (width 0) (type default) (color 0 0 0 0))
    (uuid cf2749a9-4180-4bdf-a1fd-142ffd2df0f9)
  )
  (wire (pts (xy 105.41 106.68) (xy 105.41 111.76))
    (stroke (width 0) (type default) (color 0 0 0 0))
    (uuid de342831-429a-43b9-9969-d0e804066bea)
  )
  (wire (pts (xy 114.3 90.17) (xy 114.3 109.22))
    (stroke (width 0) (type default) (color 0 0 0 0))
    (uuid decb2960-c31f-4a06-bda9-8bc12fcb6070)
  )
  (wire (pts (xy 154.94 96.52) (xy 154.94 109.22))
    (stroke (width 0) (type default) (color 0 0 0 0))
    (uuid e11f9def-80cb-43fa-ad6f-fc6bb07bd769)
  )
  (wire (pts (xy 105.41 87.63) (xy 116.84 87.63))
    (stroke (width 0) (type default) (color 0 0 0 0))
    (uuid fd2ef92b-5ea6-43d9-81c3-82e4749b9cc6)
  )

  (hierarchical_label "NQ" (shape output) (at 160.02 109.22 0)
    (effects (font (size 1.27 1.27)) (justify left))
    (uuid 04e66aef-75ca-4123-9440-9ec4f4407e1b)
  )
  (hierarchical_label "Q" (shape output) (at 160.02 90.17 0)
    (effects (font (size 1.27 1.27)) (justify left))
    (uuid a3e3c682-b432-4439-90f2-358606874f97)
  )
  (hierarchical_label "E" (shape input) (at 101.6 90.17 180)
    (effects (font (size 1.27 1.27)) (justify right))
    (uuid a55212b2-9523-4aab-b1a4-4d0847df2559)
  )
  (hierarchical_label "D" (shape input) (at 101.6 87.63 180)
    (effects (font (size 1.27 1.27)) (justify right))
    (uuid e5213f49-ae70-4e6b-9707-62423def5ab0)
  )

  (symbol (lib_id "74xGxx:74AHC1G00") (at 124.46 110.49 0) (unit 1)
    (in_bom yes) (on_board yes) (fields_autoplaced)
    (uuid 05ae220e-9460-40a2-b4f5-0f1befb6c601)
    (property "Reference" "U9" (id 0) (at 123.825 102.87 0))
    (property "Value" "74AHC1G00" (id 1) (at 123.825 105.41 0))
    (property "Footprint" "" (id 2) (at 124.46 110.49 0)
      (effects (font (size 1.27 1.27)) hide)
    )
    (property "Datasheet" "http://www.ti.com/lit/sg/scyt129e/scyt129e.pdf" (id 3) (at 124.46 110.49 0)
      (effects (font (size 1.27 1.27)) hide)
    )
    (pin "1" (uuid f2413cb9-ead1-48b8-950b-4e5f73723182))
    (pin "2" (uuid b8e1b8bc-8fbf-4424-846e-8e15ac48a4ad))
    (pin "3" (uuid 2e51b1a3-73d7-4906-a9fd-5e28facdb0a9))
    (pin "4" (uuid 6af35652-0e16-4381-a427-a1695c0cf6fa))
    (pin "5" (uuid 31712439-facd-4376-9b1a-4f0ab276f421))
  )

  (symbol (lib_id "74xGxx:74AHC1G00") (at 147.32 109.22 0) (unit 1)
    (in_bom yes) (on_board yes) (fields_autoplaced)
    (uuid 05c2e296-9622-43d8-b6c4-ed794e4c16c9)
    (property "Reference" "U8" (id 0) (at 146.685 101.6 0))
    (property "Value" "74AHC1G00" (id 1) (at 146.685 104.14 0))
    (property "Footprint" "" (id 2) (at 147.32 109.22 0)
      (effects (font (size 1.27 1.27)) hide)
    )
    (property "Datasheet" "http://www.ti.com/lit/sg/scyt129e/scyt129e.pdf" (id 3) (at 147.32 109.22 0)
      (effects (font (size 1.27 1.27)) hide)
    )
    (pin "1" (uuid ef2917df-d1bc-48f5-a482-b6dea9f4b4c6))
    (pin "2" (uuid 27776a53-f877-45d3-aea0-fff266355f4f))
    (pin "3" (uuid 471d40fa-15f6-427b-a8fc-5881e88cdecd))
    (pin "4" (uuid 7b130b4c-2bbe-4733-89ba-ff3bf576cf72))
    (pin "5" (uuid 4eafb906-9252-4b54-9f89-b8e9536a4eb3))
  )

  (symbol (lib_id "74xGxx:74AHC1G04") (at 105.41 100.33 270) (unit 1)
    (in_bom yes) (on_board yes)
    (uuid 40a91683-0cf4-4830-a896-e74103fb0031)
    (property "Reference" "U7" (id 0) (at 99.06 99.06 90)
      (effects (font (size 1.27 1.27)) (justify left))
    )
    (property "Value" "74AHC1G04" (id 1) (at 90.17 101.6 90)
      (effects (font (size 1.27 1.27)) (justify left))
    )
    (property "Footprint" "" (id 2) (at 105.41 100.33 0)
      (effects (font (size 1.27 1.27)) hide)
    )
    (property "Datasheet" "http://www.ti.com/lit/sg/scyt129e/scyt129e.pdf" (id 3) (at 105.41 100.33 0)
      (effects (font (size 1.27 1.27)) hide)
    )
    (pin "2" (uuid df40dbaa-34e3-4c14-9737-718a94f15f53))
    (pin "3" (uuid 29d1da52-36c7-4a50-9ea8-f78fc1a0e60f))
    (pin "4" (uuid 16503fa5-5c72-4dea-917b-7c99553026d5))
    (pin "5" (uuid af07dc58-0c5e-425b-8985-2215d5cf659b))
  )

  (symbol (lib_id "74xGxx:74AHC1G00") (at 124.46 88.9 0) (unit 1)
    (in_bom yes) (on_board yes) (fields_autoplaced)
    (uuid bd521e55-86c0-432d-88c9-a311416b1fca)
    (property "Reference" "U5" (id 0) (at 123.825 81.28 0))
    (property "Value" "74AHC1G00" (id 1) (at 123.825 83.82 0))
    (property "Footprint" "" (id 2) (at 124.46 88.9 0)
      (effects (font (size 1.27 1.27)) hide)
    )
    (property "Datasheet" "http://www.ti.com/lit/sg/scyt129e/scyt129e.pdf" (id 3) (at 124.46 88.9 0)
      (effects (font (size 1.27 1.27)) hide)
    )
    (pin "1" (uuid e3b31ff3-b010-4cac-8ac2-65c1f107a459))
    (pin "2" (uuid 793eb40f-45d8-4290-94cd-85a2624c68e2))
    (pin "3" (uuid 860f9371-2878-4c51-abb3-438c3412d534))
    (pin "4" (uuid 9c31b948-8ab2-4b3c-9dbd-0e74f80fb8c9))
    (pin "5" (uuid d6365783-a883-4272-b1b4-2938c5b425f2))
  )

  (symbol (lib_id "74xGxx:74AHC1G00") (at 147.32 90.17 0) (unit 1)
    (in_bom yes) (on_board yes)
    (uuid d62640c2-bd13-4d43-b737-a1071a6195bf)
    (property "Reference" "U6" (id 0) (at 144.78 86.36 0))
    (property "Value" "74AHC1G00" (id 1) (at 147.32 93.98 0))
    (property "Footprint" "" (id 2) (at 147.32 90.17 0)
      (effects (font (size 1.27 1.27)) hide)
    )
    (property "Datasheet" "http://www.ti.com/lit/sg/scyt129e/scyt129e.pdf" (id 3) (at 147.32 90.17 0)
      (effects (font (size 1.27 1.27)) hide)
    )
    (pin "1" (uuid 4472aae1-b147-4122-a247-84cbdd93496c))
    (pin "2" (uuid 71fab830-8ad4-461f-bcc9-57af90078950))
    (pin "3" (uuid 121e902f-8d16-4f09-a0ee-b8e6201e710a))
    (pin "4" (uuid 6f2bae20-bde8-403a-a8f5-e48386af3616))
    (pin "5" (uuid bb6dcaa4-24b4-4aa3-9eb6-50c7d379f7e0))
  )
)
