(kicad_sch (version 20230121) (generator eeschema)

  (uuid 9a4147a3-2718-4ed3-aa87-8d759d08a159)

  (paper "A4")

  (lib_symbols
    (symbol "Device:R" (pin_numbers hide) (pin_names (offset 0)) (in_bom yes) (on_board yes)
      (property "Reference" "R" (at 2.032 0 90)
        (effects (font (size 1.27 1.27)))
      )
      (property "Value" "R" (at 0 0 90)
        (effects (font (size 1.27 1.27)))
      )
      (property "Footprint" "" (at -1.778 0 90)
        (effects (font (size 1.27 1.27)) hide)
      )
      (property "Datasheet" "~" (at 0 0 0)
        (effects (font (size 1.27 1.27)) hide)
      )
      (property "ki_keywords" "R res resistor" (at 0 0 0)
        (effects (font (size 1.27 1.27)) hide)
      )
      (property "ki_description" "Resistor" (at 0 0 0)
        (effects (font (size 1.27 1.27)) hide)
      )
      (property "ki_fp_filters" "R_*" (at 0 0 0)
        (effects (font (size 1.27 1.27)) hide)
      )
      (symbol "R_0_1"
        (rectangle (start -1.016 -2.54) (end 1.016 2.54)
          (stroke (width 0.254) (type default))
          (fill (type none))
        )
      )
      (symbol "R_1_1"
        (pin passive line (at 0 3.81 270) (length 1.27)
          (name "~" (effects (font (size 1.27 1.27))))
          (number "1" (effects (font (size 1.27 1.27))))
        )
        (pin passive line (at 0 -3.81 90) (length 1.27)
          (name "~" (effects (font (size 1.27 1.27))))
          (number "2" (effects (font (size 1.27 1.27))))
        )
      )
    )
    (symbol "Simulation_SPICE:NMOS" (pin_numbers hide) (pin_names (offset 0)) (in_bom yes) (on_board yes)
      (property "Reference" "Q" (at 5.08 1.27 0)
        (effects (font (size 1.27 1.27)) (justify left))
      )
      (property "Value" "NMOS" (at 5.08 -1.27 0)
        (effects (font (size 1.27 1.27)) (justify left))
      )
      (property "Footprint" "" (at 5.08 2.54 0)
        (effects (font (size 1.27 1.27)) hide)
      )
      (property "Datasheet" "https://ngspice.sourceforge.io/docs/ngspice-manual.pdf" (at 0 -12.7 0)
        (effects (font (size 1.27 1.27)) hide)
      )
      (property "Sim.Device" "NMOS" (at 0 -17.145 0)
        (effects (font (size 1.27 1.27)) hide)
      )
      (property "Sim.Type" "VDMOS" (at 0 -19.05 0)
        (effects (font (size 1.27 1.27)) hide)
      )
      (property "Sim.Pins" "1=D 2=G 3=S" (at 0 -15.24 0)
        (effects (font (size 1.27 1.27)) hide)
      )
      (property "ki_keywords" "transistor NMOS N-MOS N-MOSFET simulation" (at 0 0 0)
        (effects (font (size 1.27 1.27)) hide)
      )
      (property "ki_description" "N-MOSFET transistor, drain/source/gate" (at 0 0 0)
        (effects (font (size 1.27 1.27)) hide)
      )
      (symbol "NMOS_0_1"
        (polyline
          (pts
            (xy 0.254 0)
            (xy -2.54 0)
          )
          (stroke (width 0) (type default))
          (fill (type none))
        )
        (polyline
          (pts
            (xy 0.254 1.905)
            (xy 0.254 -1.905)
          )
          (stroke (width 0.254) (type default))
          (fill (type none))
        )
        (polyline
          (pts
            (xy 0.762 -1.27)
            (xy 0.762 -2.286)
          )
          (stroke (width 0.254) (type default))
          (fill (type none))
        )
        (polyline
          (pts
            (xy 0.762 0.508)
            (xy 0.762 -0.508)
          )
          (stroke (width 0.254) (type default))
          (fill (type none))
        )
        (polyline
          (pts
            (xy 0.762 2.286)
            (xy 0.762 1.27)
          )
          (stroke (width 0.254) (type default))
          (fill (type none))
        )
        (polyline
          (pts
            (xy 2.54 2.54)
            (xy 2.54 1.778)
          )
          (stroke (width 0) (type default))
          (fill (type none))
        )
        (polyline
          (pts
            (xy 2.54 -2.54)
            (xy 2.54 0)
            (xy 0.762 0)
          )
          (stroke (width 0) (type default))
          (fill (type none))
        )
        (polyline
          (pts
            (xy 0.762 -1.778)
            (xy 3.302 -1.778)
            (xy 3.302 1.778)
            (xy 0.762 1.778)
          )
          (stroke (width 0) (type default))
          (fill (type none))
        )
        (polyline
          (pts
            (xy 1.016 0)
            (xy 2.032 0.381)
            (xy 2.032 -0.381)
            (xy 1.016 0)
          )
          (stroke (width 0) (type default))
          (fill (type outline))
        )
        (polyline
          (pts
            (xy 2.794 0.508)
            (xy 2.921 0.381)
            (xy 3.683 0.381)
            (xy 3.81 0.254)
          )
          (stroke (width 0) (type default))
          (fill (type none))
        )
        (polyline
          (pts
            (xy 3.302 0.381)
            (xy 2.921 -0.254)
            (xy 3.683 -0.254)
            (xy 3.302 0.381)
          )
          (stroke (width 0) (type default))
          (fill (type none))
        )
        (circle (center 1.651 0) (radius 2.794)
          (stroke (width 0.254) (type default))
          (fill (type none))
        )
        (circle (center 2.54 -1.778) (radius 0.254)
          (stroke (width 0) (type default))
          (fill (type outline))
        )
        (circle (center 2.54 1.778) (radius 0.254)
          (stroke (width 0) (type default))
          (fill (type outline))
        )
      )
      (symbol "NMOS_1_1"
        (pin passive line (at 2.54 5.08 270) (length 2.54)
          (name "D" (effects (font (size 1.27 1.27))))
          (number "1" (effects (font (size 1.27 1.27))))
        )
        (pin input line (at -5.08 0 0) (length 2.54)
          (name "G" (effects (font (size 1.27 1.27))))
          (number "2" (effects (font (size 1.27 1.27))))
        )
        (pin passive line (at 2.54 -5.08 90) (length 2.54)
          (name "S" (effects (font (size 1.27 1.27))))
          (number "3" (effects (font (size 1.27 1.27))))
        )
      )
    )
    (symbol "Simulation_SPICE:PMOS" (pin_numbers hide) (pin_names (offset 0)) (in_bom yes) (on_board yes)
      (property "Reference" "Q" (at 5.08 1.27 0)
        (effects (font (size 1.27 1.27)) (justify left))
      )
      (property "Value" "PMOS" (at 5.08 -1.27 0)
        (effects (font (size 1.27 1.27)) (justify left))
      )
      (property "Footprint" "" (at 5.08 2.54 0)
        (effects (font (size 1.27 1.27)) hide)
      )
      (property "Datasheet" "https://ngspice.sourceforge.io/docs/ngspice-manual.pdf" (at 0 -12.7 0)
        (effects (font (size 1.27 1.27)) hide)
      )
      (property "Sim.Device" "PMOS" (at 0 -17.145 0)
        (effects (font (size 1.27 1.27)) hide)
      )
      (property "Sim.Type" "VDMOS" (at 0 -19.05 0)
        (effects (font (size 1.27 1.27)) hide)
      )
      (property "Sim.Pins" "1=D 2=G 3=S" (at 0 -15.24 0)
        (effects (font (size 1.27 1.27)) hide)
      )
      (property "ki_keywords" "transistor PMOS P-MOS P-MOSFET simulation" (at 0 0 0)
        (effects (font (size 1.27 1.27)) hide)
      )
      (property "ki_description" "P-MOSFET transistor, drain/source/gate" (at 0 0 0)
        (effects (font (size 1.27 1.27)) hide)
      )
      (symbol "PMOS_0_1"
        (polyline
          (pts
            (xy 0.254 0)
            (xy -2.54 0)
          )
          (stroke (width 0) (type default))
          (fill (type none))
        )
        (polyline
          (pts
            (xy 0.254 1.905)
            (xy 0.254 -1.905)
          )
          (stroke (width 0.254) (type default))
          (fill (type none))
        )
        (polyline
          (pts
            (xy 0.762 -1.27)
            (xy 0.762 -2.286)
          )
          (stroke (width 0.254) (type default))
          (fill (type none))
        )
        (polyline
          (pts
            (xy 0.762 0.508)
            (xy 0.762 -0.508)
          )
          (stroke (width 0.254) (type default))
          (fill (type none))
        )
        (polyline
          (pts
            (xy 0.762 2.286)
            (xy 0.762 1.27)
          )
          (stroke (width 0.254) (type default))
          (fill (type none))
        )
        (polyline
          (pts
            (xy 2.54 2.54)
            (xy 2.54 1.778)
          )
          (stroke (width 0) (type default))
          (fill (type none))
        )
        (polyline
          (pts
            (xy 2.54 -2.54)
            (xy 2.54 0)
            (xy 0.762 0)
          )
          (stroke (width 0) (type default))
          (fill (type none))
        )
        (polyline
          (pts
            (xy 0.762 1.778)
            (xy 3.302 1.778)
            (xy 3.302 -1.778)
            (xy 0.762 -1.778)
          )
          (stroke (width 0) (type default))
          (fill (type none))
        )
        (polyline
          (pts
            (xy 2.286 0)
            (xy 1.27 0.381)
            (xy 1.27 -0.381)
            (xy 2.286 0)
          )
          (stroke (width 0) (type default))
          (fill (type outline))
        )
        (polyline
          (pts
            (xy 2.794 -0.508)
            (xy 2.921 -0.381)
            (xy 3.683 -0.381)
            (xy 3.81 -0.254)
          )
          (stroke (width 0) (type default))
          (fill (type none))
        )
        (polyline
          (pts
            (xy 3.302 -0.381)
            (xy 2.921 0.254)
            (xy 3.683 0.254)
            (xy 3.302 -0.381)
          )
          (stroke (width 0) (type default))
          (fill (type none))
        )
        (circle (center 1.651 0) (radius 2.794)
          (stroke (width 0.254) (type default))
          (fill (type none))
        )
        (circle (center 2.54 -1.778) (radius 0.254)
          (stroke (width 0) (type default))
          (fill (type outline))
        )
        (circle (center 2.54 1.778) (radius 0.254)
          (stroke (width 0) (type default))
          (fill (type outline))
        )
      )
      (symbol "PMOS_1_1"
        (pin passive line (at 2.54 5.08 270) (length 2.54)
          (name "D" (effects (font (size 1.27 1.27))))
          (number "1" (effects (font (size 1.27 1.27))))
        )
        (pin input line (at -5.08 0 0) (length 2.54)
          (name "G" (effects (font (size 1.27 1.27))))
          (number "2" (effects (font (size 1.27 1.27))))
        )
        (pin passive line (at 2.54 -5.08 90) (length 2.54)
          (name "S" (effects (font (size 1.27 1.27))))
          (number "3" (effects (font (size 1.27 1.27))))
        )
      )
    )
    (symbol "power:GND" (power) (pin_names (offset 0)) (in_bom yes) (on_board yes)
      (property "Reference" "#PWR" (at 0 -6.35 0)
        (effects (font (size 1.27 1.27)) hide)
      )
      (property "Value" "GND" (at 0 -3.81 0)
        (effects (font (size 1.27 1.27)))
      )
      (property "Footprint" "" (at 0 0 0)
        (effects (font (size 1.27 1.27)) hide)
      )
      (property "Datasheet" "" (at 0 0 0)
        (effects (font (size 1.27 1.27)) hide)
      )
      (property "ki_keywords" "global power" (at 0 0 0)
        (effects (font (size 1.27 1.27)) hide)
      )
      (property "ki_description" "Power symbol creates a global label with name \"GND\" , ground" (at 0 0 0)
        (effects (font (size 1.27 1.27)) hide)
      )
      (symbol "GND_0_1"
        (polyline
          (pts
            (xy 0 0)
            (xy 0 -1.27)
            (xy 1.27 -1.27)
            (xy 0 -2.54)
            (xy -1.27 -1.27)
            (xy 0 -1.27)
          )
          (stroke (width 0) (type default))
          (fill (type none))
        )
      )
      (symbol "GND_1_1"
        (pin power_in line (at 0 0 270) (length 0) hide
          (name "GND" (effects (font (size 1.27 1.27))))
          (number "1" (effects (font (size 1.27 1.27))))
        )
      )
    )
    (symbol "power:VCC" (power) (pin_names (offset 0)) (in_bom yes) (on_board yes)
      (property "Reference" "#PWR" (at 0 -3.81 0)
        (effects (font (size 1.27 1.27)) hide)
      )
      (property "Value" "VCC" (at 0 3.81 0)
        (effects (font (size 1.27 1.27)))
      )
      (property "Footprint" "" (at 0 0 0)
        (effects (font (size 1.27 1.27)) hide)
      )
      (property "Datasheet" "" (at 0 0 0)
        (effects (font (size 1.27 1.27)) hide)
      )
      (property "ki_keywords" "global power" (at 0 0 0)
        (effects (font (size 1.27 1.27)) hide)
      )
      (property "ki_description" "Power symbol creates a global label with name \"VCC\"" (at 0 0 0)
        (effects (font (size 1.27 1.27)) hide)
      )
      (symbol "VCC_0_1"
        (polyline
          (pts
            (xy -0.762 1.27)
            (xy 0 2.54)
          )
          (stroke (width 0) (type default))
          (fill (type none))
        )
        (polyline
          (pts
            (xy 0 0)
            (xy 0 2.54)
          )
          (stroke (width 0) (type default))
          (fill (type none))
        )
        (polyline
          (pts
            (xy 0 2.54)
            (xy 0.762 1.27)
          )
          (stroke (width 0) (type default))
          (fill (type none))
        )
      )
      (symbol "VCC_1_1"
        (pin power_in line (at 0 0 90) (length 0) hide
          (name "VCC" (effects (font (size 1.27 1.27))))
          (number "1" (effects (font (size 1.27 1.27))))
        )
      )
    )
  )

  (junction (at 91.44 57.15) (diameter 0) (color 0 0 0 0)
    (uuid 83336706-aed4-45b7-abcb-888ee25d3185)
  )
  (junction (at 101.6 57.15) (diameter 0) (color 0 0 0 0)
    (uuid a47387e4-e4ce-4f2c-b581-6e5b37928da3)
  )

  (wire (pts (xy 101.6 57.15) (xy 101.6 59.69))
    (stroke (width 0) (type default))
    (uuid 15dc1705-a60c-43c3-8919-90227e0bc89e)
  )
  (wire (pts (xy 91.44 64.77) (xy 93.98 64.77))
    (stroke (width 0) (type default))
    (uuid 52d4253e-b161-49d3-9baf-dc96c2f29272)
  )
  (wire (pts (xy 101.6 57.15) (xy 113.03 57.15))
    (stroke (width 0) (type default))
    (uuid 65594287-5f99-40a3-a1fc-3b182b6a1fe2)
  )
  (wire (pts (xy 120.65 57.15) (xy 127 57.15))
    (stroke (width 0) (type default))
    (uuid 84c58181-148e-4e18-973c-71d5f150e3aa)
  )
  (wire (pts (xy 93.98 49.53) (xy 91.44 49.53))
    (stroke (width 0) (type default))
    (uuid c68a3bb6-790c-42bb-9f6e-e5332d0c693e)
  )
  (wire (pts (xy 91.44 49.53) (xy 91.44 57.15))
    (stroke (width 0) (type default))
    (uuid d511757f-eac5-4080-8587-b793a4a49667)
  )
  (wire (pts (xy 91.44 57.15) (xy 91.44 64.77))
    (stroke (width 0) (type default))
    (uuid e2132917-5f37-4ccc-9fc9-44d9e49a4f1a)
  )
  (wire (pts (xy 83.82 57.15) (xy 91.44 57.15))
    (stroke (width 0) (type default))
    (uuid e286f3d8-ca88-4727-b749-8c264089c7f6)
  )
  (wire (pts (xy 101.6 54.61) (xy 101.6 57.15))
    (stroke (width 0) (type default))
    (uuid eb98db5c-ed75-4d31-89ca-2295f03f70d9)
  )

  (global_label "OUT" (shape input) (at 127 57.15 0) (fields_autoplaced)
    (effects (font (size 1.27 1.27)) (justify left))
    (uuid 1289a43b-bf79-4191-a213-aa1352873462)
    (property "Intersheetrefs" "${INTERSHEET_REFS}" (at 133.6138 57.15 0)
      (effects (font (size 1.27 1.27)) (justify left) hide)
    )
  )
  (global_label "IN" (shape input) (at 83.82 57.15 180) (fields_autoplaced)
    (effects (font (size 1.27 1.27)) (justify right))
    (uuid 2710298a-5c7b-4914-88cd-92096d6a1dd7)
    (property "Intersheetrefs" "${INTERSHEET_REFS}" (at 78.8995 57.15 0)
      (effects (font (size 1.27 1.27)) (justify right) hide)
    )
  )

  (symbol (lib_id "power:VCC") (at 101.6 44.45 0) (unit 1)
    (in_bom yes) (on_board yes) (dnp no) (fields_autoplaced)
    (uuid 3999e1bb-3e8e-4c97-8e72-27765b7c6b91)
    (property "Reference" "#PWR01" (at 101.6 48.26 0)
      (effects (font (size 1.27 1.27)) hide)
    )
    (property "Value" "VCC" (at 101.6 39.37 0)
      (effects (font (size 1.27 1.27)))
    )
    (property "Footprint" "" (at 101.6 44.45 0)
      (effects (font (size 1.27 1.27)) hide)
    )
    (property "Datasheet" "" (at 101.6 44.45 0)
      (effects (font (size 1.27 1.27)) hide)
    )
    (pin "1" (uuid afe9baba-e724-4d18-b515-3d68b4a8e549))
    (instances
      (project "open_drain"
        (path "/9a4147a3-2718-4ed3-aa87-8d759d08a159"
          (reference "#PWR01") (unit 1)
        )
      )
    )
  )

  (symbol (lib_id "Simulation_SPICE:PMOS") (at 99.06 49.53 0) (mirror x) (unit 1)
    (in_bom yes) (on_board yes) (dnp no)
    (uuid 3a4c2724-fdc9-4a45-8348-1a1db7f56e20)
    (property "Reference" "Q2" (at 105.41 50.8 0)
      (effects (font (size 1.27 1.27)) (justify left))
    )
    (property "Value" "PMOS" (at 105.41 48.26 0)
      (effects (font (size 1.27 1.27)) (justify left))
    )
    (property "Footprint" "" (at 104.14 52.07 0)
      (effects (font (size 1.27 1.27)) hide)
    )
    (property "Datasheet" "https://ngspice.sourceforge.io/docs/ngspice-manual.pdf" (at 99.06 36.83 0)
      (effects (font (size 1.27 1.27)) hide)
    )
    (property "Sim.Device" "PMOS" (at 99.06 32.385 0)
      (effects (font (size 1.27 1.27)) hide)
    )
    (property "Sim.Type" "VDMOS" (at 99.06 30.48 0)
      (effects (font (size 1.27 1.27)) hide)
    )
    (property "Sim.Pins" "1=D 2=G 3=S" (at 99.06 34.29 0)
      (effects (font (size 1.27 1.27)) hide)
    )
    (pin "3" (uuid 98fb4660-71d6-4950-8481-b45d3aff8dec))
    (pin "1" (uuid 658fe16e-06cb-4064-83ed-943b32fb5363))
    (pin "2" (uuid aab7ab62-8c40-43dd-a709-976712fcb5e6))
    (instances
      (project "open_drain"
        (path "/9a4147a3-2718-4ed3-aa87-8d759d08a159"
          (reference "Q2") (unit 1)
        )
      )
    )
  )

  (symbol (lib_id "Device:R") (at 116.84 57.15 90) (unit 1)
    (in_bom yes) (on_board yes) (dnp no) (fields_autoplaced)
    (uuid 6862eac5-a704-4721-9b0d-88523a21016b)
    (property "Reference" "R1" (at 116.84 50.8 90)
      (effects (font (size 1.27 1.27)))
    )
    (property "Value" "R" (at 116.84 53.34 90)
      (effects (font (size 1.27 1.27)))
    )
    (property "Footprint" "" (at 116.84 58.928 90)
      (effects (font (size 1.27 1.27)) hide)
    )
    (property "Datasheet" "~" (at 116.84 57.15 0)
      (effects (font (size 1.27 1.27)) hide)
    )
    (pin "1" (uuid d83efd6d-8949-4df8-9b21-e3bf8b5e454d))
    (pin "2" (uuid ddbbd1e3-99d3-4e13-85de-e53cd05552b1))
    (instances
      (project "open_drain"
        (path "/9a4147a3-2718-4ed3-aa87-8d759d08a159"
          (reference "R1") (unit 1)
        )
      )
    )
  )

  (symbol (lib_id "Simulation_SPICE:NMOS") (at 99.06 64.77 0) (unit 1)
    (in_bom yes) (on_board yes) (dnp no) (fields_autoplaced)
    (uuid dfa2ea11-fa20-4792-81db-48f8bd0d7166)
    (property "Reference" "Q1" (at 105.41 63.5 0)
      (effects (font (size 1.27 1.27)) (justify left))
    )
    (property "Value" "NMOS" (at 105.41 66.04 0)
      (effects (font (size 1.27 1.27)) (justify left))
    )
    (property "Footprint" "" (at 104.14 62.23 0)
      (effects (font (size 1.27 1.27)) hide)
    )
    (property "Datasheet" "https://ngspice.sourceforge.io/docs/ngspice-manual.pdf" (at 99.06 77.47 0)
      (effects (font (size 1.27 1.27)) hide)
    )
    (property "Sim.Device" "NMOS" (at 99.06 81.915 0)
      (effects (font (size 1.27 1.27)) hide)
    )
    (property "Sim.Type" "VDMOS" (at 99.06 83.82 0)
      (effects (font (size 1.27 1.27)) hide)
    )
    (property "Sim.Pins" "1=D 2=G 3=S" (at 99.06 80.01 0)
      (effects (font (size 1.27 1.27)) hide)
    )
    (pin "3" (uuid dc418bdf-5e0d-40e1-b1e4-f7a15abea367))
    (pin "1" (uuid 168d300c-84eb-4b66-90fa-73118c2a1505))
    (pin "2" (uuid 3b570a77-c056-45aa-a0f0-fd18dce0eb98))
    (instances
      (project "open_drain"
        (path "/9a4147a3-2718-4ed3-aa87-8d759d08a159"
          (reference "Q1") (unit 1)
        )
      )
    )
  )

  (symbol (lib_id "power:GND") (at 101.6 69.85 0) (unit 1)
    (in_bom yes) (on_board yes) (dnp no) (fields_autoplaced)
    (uuid fa215cbc-673b-48f2-9c32-871c751aa7b3)
    (property "Reference" "#PWR02" (at 101.6 76.2 0)
      (effects (font (size 1.27 1.27)) hide)
    )
    (property "Value" "GND" (at 101.6 74.93 0)
      (effects (font (size 1.27 1.27)))
    )
    (property "Footprint" "" (at 101.6 69.85 0)
      (effects (font (size 1.27 1.27)) hide)
    )
    (property "Datasheet" "" (at 101.6 69.85 0)
      (effects (font (size 1.27 1.27)) hide)
    )
    (pin "1" (uuid 281cd26a-61fe-4338-bbb1-9e5e27789e60))
    (instances
      (project "open_drain"
        (path "/9a4147a3-2718-4ed3-aa87-8d759d08a159"
          (reference "#PWR02") (unit 1)
        )
      )
    )
  )

  (sheet_instances
    (path "/" (page "1"))
  )
)
